^C:\USERS\KACPER FEISTER\ONEDRIVE - SHEFFIELD HALLAM UNIVERSITY\2. YEAR 2\1.P3DG\4.EVIDENCE FOLDER\TUTORIAL 5\TUTORIAL05\TUTORIAL05\DEBUG\APPLICATION.OBJ|C:\USERS\KACPER FEISTER\ONEDRIVE - SHEFFIELD HALLAM UNIVERSITY\2. YEAR 2\1.P3DG\4.EVIDENCE FOLDER\TUTORIAL 5\TUTORIAL05\TUTORIAL05\DEBUG\GAMEOBJECT.OBJ|C:\USERS\KACPER FEISTER\ONEDRIVE - SHEFFIELD HALLAM UNIVERSITY\2. YEAR 2\1.P3DG\4.EVIDENCE FOLDER\TUTORIAL 5\TUTORIAL05\TUTORIAL05\DEBUG\GAMEPLAY.OBJ|C:\USERS\KACPER FEISTER\ONEDRIVE - SHEFFIELD HALLAM UNIVERSITY\2. YEAR 2\1.P3DG\4.EVIDENCE FOLDER\TUTORIAL 5\TUTORIAL05\TUTORIAL05\DEBUG\MAIN.OBJ
C:\USERS\KACPER FEISTER\ONEDRIVE - SHEFFIELD HALLAM UNIVERSITY\2. YEAR 2\1.P3DG\SFML-2.5.1\LIB\SFML-SYSTEM-D.LIB
C:\USERS\KACPER FEISTER\ONEDRIVE - SHEFFIELD HALLAM UNIVERSITY\2. YEAR 2\1.P3DG\SFML-2.5.1\LIB\SFML-AUDIO-D.LIB
C:\USERS\KACPER FEISTER\ONEDRIVE - SHEFFIELD HALLAM UNIVERSITY\2. YEAR 2\1.P3DG\SFML-2.5.1\LIB\SFML-MAIN-D.LIB
C:\USERS\KACPER FEISTER\ONEDRIVE - SHEFFIELD HALLAM UNIVERSITY\2. YEAR 2\1.P3DG\SFML-2.5.1\LIB\SFML-GRAPHICS-D.LIB
C:\USERS\KACPER FEISTER\ONEDRIVE - SHEFFIELD HALLAM UNIVERSITY\2. YEAR 2\1.P3DG\SFML-2.5.1\LIB\SFML-WINDOW-D.LIB
C:\PROGRAM FILES (X86)\WINDOWS KITS\10\LIB\10.0.19041.0\UM\X86\KERNEL32.LIB
C:\PROGRAM FILES (X86)\WINDOWS KITS\10\LIB\10.0.19041.0\UM\X86\USER32.LIB
C:\PROGRAM FILES (X86)\WINDOWS KITS\10\LIB\10.0.19041.0\UM\X86\GDI32.LIB
C:\PROGRAM FILES (X86)\WINDOWS KITS\10\LIB\10.0.19041.0\UM\X86\WINSPOOL.LIB
C:\PROGRAM FILES (X86)\WINDOWS KITS\10\LIB\10.0.19041.0\UM\X86\COMDLG32.LIB
C:\PROGRAM FILES (X86)\WINDOWS KITS\10\LIB\10.0.19041.0\UM\X86\ADVAPI32.LIB
C:\PROGRAM FILES (X86)\WINDOWS KITS\10\LIB\10.0.19041.0\UM\X86\SHELL32.LIB
C:\PROGRAM FILES (X86)\WINDOWS KITS\10\LIB\10.0.19041.0\UM\X86\OLE32.LIB
C:\PROGRAM FILES (X86)\WINDOWS KITS\10\LIB\10.0.19041.0\UM\X86\OLEAUT32.LIB
C:\PROGRAM FILES (X86)\WINDOWS KITS\10\LIB\10.0.19041.0\UM\X86\UUID.LIB
C:\PROGRAM FILES (X86)\WINDOWS KITS\10\LIB\10.0.19041.0\UM\X86\ODBC32.LIB
C:\PROGRAM FILES (X86)\WINDOWS KITS\10\LIB\10.0.19041.0\UM\X86\ODBCCP32.LIB
C:\USERS\KACPER FEISTER\ONEDRIVE - SHEFFIELD HALLAM UNIVERSITY\2. YEAR 2\1.P3DG\4.EVIDENCE FOLDER\TUTORIAL 5\TUTORIAL05\TUTORIAL05\DEBUG\APPLICATION.OBJ
C:\USERS\KACPER FEISTER\ONEDRIVE - SHEFFIELD HALLAM UNIVERSITY\2. YEAR 2\1.P3DG\4.EVIDENCE FOLDER\TUTORIAL 5\TUTORIAL05\TUTORIAL05\DEBUG\GAMEOBJECT.OBJ
C:\USERS\KACPER FEISTER\ONEDRIVE - SHEFFIELD HALLAM UNIVERSITY\2. YEAR 2\1.P3DG\4.EVIDENCE FOLDER\TUTORIAL 5\TUTORIAL05\TUTORIAL05\DEBUG\GAMEPLAY.OBJ
C:\USERS\KACPER FEISTER\ONEDRIVE - SHEFFIELD HALLAM UNIVERSITY\2. YEAR 2\1.P3DG\4.EVIDENCE FOLDER\TUTORIAL 5\TUTORIAL05\TUTORIAL05\DEBUG\MAIN.OBJ
C:\WINDOWS\SYSTEM32\TZRES.DLL
C:\WINDOWS\GLOBALIZATION\SORTING\SORTDEFAULT.NLS
C:\PROGRAM FILES (X86)\MICROSOFT VISUAL STUDIO\2019\COMMUNITY\VC\TOOLS\MSVC\14.28.29910\LIB\X86\MSVCPRTD.LIB
C:\PROGRAM FILES (X86)\MICROSOFT VISUAL STUDIO\2019\COMMUNITY\VC\TOOLS\MSVC\14.28.29910\LIB\X86\MSVCRTD.LIB
C:\PROGRAM FILES (X86)\MICROSOFT VISUAL STUDIO\2019\COMMUNITY\VC\TOOLS\MSVC\14.28.29910\LIB\X86\OLDNAMES.LIB
C:\PROGRAM FILES (X86)\MICROSOFT VISUAL STUDIO\2019\COMMUNITY\VC\TOOLS\MSVC\14.28.29910\LIB\X86\VCRUNTIMED.LIB
C:\PROGRAM FILES (X86)\WINDOWS KITS\10\LIB\10.0.19041.0\UCRT\X86\UCRTD.LIB
